hgnc_symbol,entrezgene_id,entrezgene_description
AADAT,51166,aminoadipate aminotransferase
ABCA17P,650655,"ATP binding cassette subfamily A member 17, pseudogene"
ABCC13,150000,ATP binding cassette subfamily C member 13 (pseudogene)
ABCG8,64241,ATP binding cassette subfamily G member 8
ABHD1,84696,abhydrolase domain containing 1
ACADL,33,acyl-CoA dehydrogenase long chain
ACTG1P25,148709,actin gamma 1 pseudogene 25
ACTRT3,84517,actin related protein T3
ADAM3A,1587,ADAM metallopeptidase domain 3A (pseudogene)
ADAMTS14,140766,ADAM metallopeptidase with thrombospondin type 1 motif 14
ADAMTS4,9507,ADAM metallopeptidase with thrombospondin type 1 motif 4
ADAP2,55803,ArfGAP with dual PH domains 2
ADGB,79747,androglobin
ADGRE2,30817,adhesion G protein-coupled receptor E2
ADGRF3,165082,adhesion G protein-coupled receptor F3
ADGRF5,221395,adhesion G protein-coupled receptor F5
ADH1B,125,"alcohol dehydrogenase 1B (class I), beta polypeptide"
ADORA2A,135,adenosine A2a receptor
ADRA1D,146,adrenoceptor alpha 1D
AFP,174,alpha fetoprotein
AGBL3,340351,ATP/GTP binding protein like 3
AICDA,57379,activation induced cytidine deaminase
AK8,158067,adenylate kinase 8
ALB,213,albumin
ALOX12,239,"arachidonate 12-lipoxygenase, 12S type"
ALOX5AP,241,arachidonate 5-lipoxygenase activating protein
ALOXE3,59344,arachidonate lipoxygenase 3
ANAPC1P1,100286979,anaphase promoting complex subunit 1 pseudogene 1
ANK2,287,ankyrin 2
ANKDD1A,348094,ankyrin repeat and death domain containing 1A
ANKRD18A,253650,ankyrin repeat domain 18A
ANKRD20A1,84210,ankyrin repeat domain 20 family member A1
ANKRD20A3P,642929,"general transcription factor II, i pseudogene"
ANKRD23,200539,ankyrin repeat domain 23
ANKRD24,170961,ankyrin repeat domain 24
ANKRD34A,284615,ankyrin repeat domain 34A
ANKRD44,91526,ankyrin repeat domain 44
ANKS1B,56899,ankyrin repeat and sterile alpha motif domain containing 1B
ANTXRL,195977,ANTXR like
ANXA2R,389289,annexin A2 receptor
APBA1,320,amyloid beta precursor protein binding family A member 1
APBB1,322,amyloid beta precursor protein binding family B member 1
APBB1IP,54518,amyloid beta precursor protein binding family B member 1 interacting protein
APLN,8862,apelin
ARGFX,503582,arginine-fifty homeobox
ARHGAP22,58504,Rho GTPase activating protein 22
ARHGAP33,115703,Rho GTPase activating protein 33
ARSG,22901,arylsulfatase G
ASB16,92591,ankyrin repeat and SOCS box containing 16
ASB4,51666,ankyrin repeat and SOCS box containing 4
ASB9,140462,ankyrin repeat and SOCS box containing 9
ASPDH,554235,aspartate dehydrogenase domain containing
ASRGL1,80150,asparaginase and isoaspartyl peptidase 1
ATAD3C,219293,ATPase family AAA domain containing 3C
ATF7-NPFF,114108587,ATF7-NPFF readthrough
ATP13A4,84239,ATPase 13A4
ATP2A1,487,ATPase sarcoplasmic/endoplasmic reticulum Ca2+ transporting 1
ATP8B2,57198,ATPase phospholipid transporting 8B2
B3GALT2,8707,"beta-1,3-galactosyltransferase 2"
B3GNTL1,146712,"UDP-GlcNAc:betaGal beta-1,3-N-acetylglucosaminyltransferase like 1"
BATF,10538,basic leucine zipper ATF-like transcription factor
BCAN,63827,brevican
BCL2,596,BCL2 apoptosis regulator
BCORP1,286554,BCL6 corepressor pseudogene 1
BEGAIN,57596,brain enriched guanylate kinase associated
BMX,660,BMX non-receptor tyrosine kinase
BRSK1,84446,BR serine/threonine kinase 1
BTBD11,121551,BTB domain containing 11
C10orf99,387695,chromosome 10 open reading frame 99
C11orf65,160140,chromosome 11 open reading frame 65
C13orf42,647166,chromosome 13 open reading frame 42
C15orf65,145788,chromosome 15 open reading frame 65
C17orf107,100130311,chromosome 17 open reading frame 107
C19orf18,147685,chromosome 19 open reading frame 18
C19orf38,255809,chromosome 19 open reading frame 38
C1orf105,92346,chromosome 1 open reading frame 105
C1orf53,388722,chromosome 1 open reading frame 53
C1QTNF3,114899,C1q and TNF related 3
C21orf58,54058,chromosome 21 open reading frame 58
C2orf91,400950,chromosome 2 putative open reading frame 91
C3orf14,57415,chromosome 3 open reading frame 14
C4BPA,722,complement component 4 binding protein alpha
C4orf36,132989,chromosome 4 open reading frame 36
C5AR1,728,complement C5a receptor 1
C6orf15,29113,chromosome 6 open reading frame 15
C6orf226,441150,chromosome 6 open reading frame 226
C6orf52,347744,chromosome 6 open reading frame 52
C8G,733,complement C8 gamma chain
C8orf37,157657,chromosome 8 open reading frame 37
C8orf44,56260,chromosome 8 open reading frame 44
C9orf131,138724,chromosome 9 open reading frame 131
C9orf24,84688,chromosome 9 open reading frame 24
CA1,759,carbonic anhydrase 1
CA11,770,carbonic anhydrase 11
CA8,767,carbonic anhydrase 8
CABYR,26256,calcium binding tyrosine phosphorylation regulated
CACNA1I,8911,calcium voltage-gated channel subunit alpha1 I
CACNA2D2,9254,calcium voltage-gated channel auxiliary subunit alpha2delta 2
CAMK1D,57118,calcium/calmodulin dependent protein kinase ID
CAMKK1,84254,calcium/calmodulin dependent protein kinase kinase 1
CAPN14,440854,calpain 14
CARMIL3,90668,capping protein regulator and myosin 1 linker 3
CASP4LP,643733,"caspase 4 like, pseudogene"
CASS4,57091,Cas scaffold protein family member 4
CATSPER2P1,440278,cation channel sperm associated 2 pseudogene 1
CATSPER3,347732,cation channel sperm associated 3
CBR3,874,carbonyl reductase 3
CCDC113,29070,coiled-coil domain containing 113
CCDC148,130940,coiled-coil domain containing 148
CCDC15,80071,coiled-coil domain containing 15
CCDC158,339965,coiled-coil domain containing 158
CCDC175,729665,coiled-coil domain containing 175
CCDC180,100499483,coiled-coil domain containing 180
CCDC96,257236,coiled-coil domain containing 96
CCL14,6358,C-C motif chemokine ligand 14
CCL4L2,9560,C-C motif chemokine ligand 4 like 2
CCN5,8839,cellular communication network factor 5
CCNB3,85417,cyclin B3
CD14,929,CD14 molecule
CD160,11126,CD160 molecule
CD163,9332,CD163 molecule
CD22,933,CD22 molecule
CD244,51744,CD244 molecule
CD27,939,CD27 molecule
CD300LF,146722,CD300 molecule like family member f
CD36,948,CD36 molecule
CD72,971,CD72 molecule
CD84,8832,CD84 molecule
CD8B,926,CD8b molecule
CDHR1,92211,cadherin related family member 1
CDK5R1,8851,cyclin dependent kinase 5 regulatory subunit 1
CDKL2,8999,cyclin dependent kinase like 2
CDNF,441549,cerebral dopamine neurotrophic factor
CDRT4,284040,CMT1A duplicated region transcript 4
CEMP1,752014,cementum protein 1
CENPP,401541,centromere protein P
CFAP20DC,200844,CFAP20 domain containing
CFD,1675,complement factor D
CGREF1,10669,cell growth regulator with EF-hand domain 1
CHRM5,1133,cholinergic receptor muscarinic 5
CHRNA1,1134,cholinergic receptor nicotinic alpha 1 subunit
CHST13,166012,carbohydrate sulfotransferase 13
CHST3,9469,carbohydrate sulfotransferase 3
CLCA3P,9629,"chloride channel accessory 3, pseudogene"
CLCNKB,1188,chloride voltage-gated channel Kb
CLEC18A,348174,C-type lectin domain family 18 member A
CLEC4A,50856,C-type lectin domain family 4 member A
CLGN,1047,calmegin
CLIP3,25999,CAP-Gly domain containing linker protein 3
CLVS1,157807,clavesin 1
CNFN,84518,cornifelin
CNTD1,124817,cyclin N-terminal domain containing 1
CNTFR,1271,ciliary neurotrophic factor receptor
CNTN3,5067,contactin 3
COL12A1,1303,collagen type XII alpha 1 chain
COL25A1,84570,collagen type XXV alpha 1 chain
COL2A1,1280,collagen type II alpha 1 chain
COL4A3,1285,collagen type IV alpha 3 chain
COL5A2,1290,collagen type V alpha 2 chain
COL8A1,1295,collagen type VIII alpha 1 chain
COL9A1,1297,collagen type IX alpha 1 chain
COLEC12,81035,collectin subfamily member 12
COPZ2,51226,COPI coat complex subunit zeta 2
CPA2,1358,carboxypeptidase A2
CPA4,51200,carboxypeptidase A4
CPNE8,144402,copine 8
CPO,130749,carboxypeptidase O
CPXM2,119587,"carboxypeptidase X, M14 family member 2"
CRB2,286204,crumbs cell polarity complex component 2
CSF1R,1436,colony stimulating factor 1 receptor
CSMD2,114784,CUB and Sushi multiple domains 2
CTTNBP2,83992,cortactin binding protein 2
CUBN,8029,cubilin
CXCR3,2833,C-X-C motif chemokine receptor 3
CXXC4,80319,CXXC finger protein 4
CYP1B1,1545,cytochrome P450 family 1 subfamily B member 1
CYP27B1,1594,cytochrome P450 family 27 subfamily B member 1
CYP2T1P,171523,"cytochrome P450 family 2 subfamily T member 1, pseudogene"
CYP2W1,54905,cytochrome P450 family 2 subfamily W member 1
CYP3A7-CYP3A51P,100861540,CYP3A7-CYP3A51P readthrough
CYP4B1,1580,cytochrome P450 family 4 subfamily B member 1
CYP4F30P,100132708,"cytochrome P450 family 4 subfamily F member 30, pseudogene"
CYTH4,27128,cytohesin 4
DAB1,1600,DAB adaptor protein 1
DBF4B,80174,DBF4 zinc finger B
DCDC1,341019,doublecortin domain containing 1
DCN,1634,decorin
DCST2,127579,DC-STAMP domain containing 2
DDX43,55510,DEAD-box helicase 43
DEFB1,1672,defensin beta 1
DEPDC4,120863,DEP domain containing 4
DGCR6,8214,DiGeorge syndrome critical region gene 6
DIO1,1733,iodothyronine deiodinase 1
DIO3,1735,iodothyronine deiodinase 3
DLEU7,220107,deleted in lymphocytic leukemia 7
DNAAF4,161582,dynein axonemal assembly factor 4
DNAH10,196385,dynein axonemal heavy chain 10
DNAH6,1768,dynein axonemal heavy chain 6
DNAH9,1770,dynein axonemal heavy chain 9
DNAJB13,374407,DnaJ heat shock protein family (Hsp40) member B13
DNLZ,728489,DNL-type zinc finger
DOCK8,81704,dedicator of cytokinesis 8
DPY19L2P3,442524,DPY19L2 pseudogene 3
DRC3,83450,dynein regulatory complex subunit 3
DRD4,1815,dopamine receptor D4
DSG1,1828,desmoglein 1
DUSP15,128853,dual specificity phosphatase 15
DYNAP,284254,dynactin associated protein
EBLN2,55096,endogenous Bornavirus like nucleoprotein 2
EDIL3,10085,EGF like repeats and discoidin domains 3
EFR3B,22979,EFR3 homolog B
EHD3,30845,EH domain containing 3
ERICH2,285141,glutamate rich 2
ESYT3,83850,extended synaptotagmin 3
EVX1,2128,even-skipped homeobox 1
F7,2155,coagulation factor VII
F8,2157,coagulation factor VIII
FABP6,2172,fatty acid binding protein 6
FAM120C,54954,family with sequence similarity 120C
FAM131C,348487,family with sequence similarity 131 member C
FAM216A,29902,family with sequence similarity 216 member A
FAM229B,619208,family with sequence similarity 229 member B
FAM241B,219738,family with sequence similarity 241 member B
FAM25C,644054,family with sequence similarity 25 member C
FAM25G,100133093,family with sequence similarity 25 member G
FAM86EP,348926,"family with sequence similarity 86, member A pseudogene"
FAM95C,100289137,family with sequence similarity 95 member C
FAR2P4,440910,uncharacterized LOC440910
FAT2,2196,FAT atypical cadherin 2
FBLN5,10516,fibulin 5
FBXL16,146330,F-box and leucine rich repeat protein 16
FBXO17,115290,F-box protein 17
FBXO24,26261,F-box protein 24
FCAR,2204,Fc fragment of IgA receptor
FCER1A,2205,Fc fragment of IgE receptor Ia
FGF2,2247,fibroblast growth factor 2
FGL2,10875,fibrinogen like 2
FKBP7,51661,FKBP prolyl isomerase 7
FLRT2,23768,fibronectin leucine rich transmembrane protein 2
FLT1,2321,fms related receptor tyrosine kinase 1
FMNL1,752,formin like 1
FMNL3,91010,formin like 3
FNDC10,643988,fibronectin type III domain containing 10
FNDC5,252995,fibronectin type III domain containing 5
FOLR1,2348,folate receptor alpha
FOXD1,2297,forkhead box D1
FOXL2NB,401089,FOXL2 neighbor
FOXP2,93986,forkhead box P2
FRRS1L,23732,ferric chelate reductase 1 like
FTCDNL1,348751,formiminotransferase cyclodeaminase N-terminal like
FYB2,199920,FYN binding protein 2
GABRB2,2561,gamma-aminobutyric acid type A receptor subunit beta2
GAL3ST4,79690,galactose-3-O-sulfotransferase 4
GALNT13,114805,polypeptide N-acetylgalactosaminyltransferase 13
GALNT16,57452,polypeptide N-acetylgalactosaminyltransferase 16
GARNL3,84253,GTPase activating Rap/RanGAP domain like 3
GCG,2641,glucagon
GGN,199720,gametogenetin
GIMD1,100507096,GIMAP family P-loop NTPase domain containing 1
GJB5,2709,gap junction protein beta 5
GLIPR1L2,144321,GLIPR1 like 2
GLIPR2,152007,GLI pathogenesis related 2
GLRA2,2742,glycine receptor alpha 2
GLS2,27165,glutaminase 2
GLYATL1,92292,glycine-N-acyltransferase like 1
GNG4,2786,G protein subunit gamma 4
GOLGA6L10,647042,golgin A6 family like 10
GOLGA6L22,440243,golgin A6 family like 22
GOLGA8J,653073,golgin A8 family member J
GOLGA8R,101059918,golgin A8 family member R
GP1BA,2811,glycoprotein Ib platelet subunit alpha
GPLD1,2822,glycosylphosphatidylinositol specific phospholipase D1
GPR135,64582,G protein-coupled receptor 135
GPR143,4935,G protein-coupled receptor 143
GPR199P,653160,"G protein-coupled receptor 199, pseudogene"
GPRASP1,9737,G protein-coupled receptor associated sorting protein 1
GRB14,2888,growth factor receptor bound protein 14
GRIK2,2898,glutamate ionotropic receptor kainate type subunit 2
GSDMA,284110,gasdermin A
GUCA1B,2979,guanylate cyclase activator 1B
GUSBP2,387036,GUSB pseudogene 2
GVQW3,100506127,GVQW motif containing 3
GXYLT2,727936,glucoside xylosyltransferase 2
HAL,3034,histidine ammonia-lyase
HAP1,9001,huntingtin associated protein 1
HAPLN2,60484,hyaluronan and proteoglycan link protein 2
HAPLN3,145864,hyaluronan and proteoglycan link protein 3
HAS2,3037,hyaluronan synthase 2
HEATR4,399671,HEAT repeat containing 4
HECTD2,143279,HECT domain E3 ubiquitin protein ligase 2
HECW2,57520,"HECT, C2 and WW domain containing E3 ubiquitin protein ligase 2"
HIC1,3090,HIC ZBTB transcriptional repressor 1
HLA-DMB,3109,"major histocompatibility complex, class II, DM beta"
HLA-DRB3,3125,"major histocompatibility complex, class II, DR beta 3"
HLF,3131,"HLF transcription factor, PAR bZIP family member"
HMCN1,83872,hemicentin 1
HMGN5,79366,high mobility group nucleosome binding domain 5
HNRNPA1L2,144983,heterogeneous nuclear ribonucleoprotein A1 like 2
HOXA10,3206,homeobox A10
HOXA13,3209,homeobox A13
HOXA2,3199,homeobox A2
HOXA3,3200,homeobox A3
HOXA4,3201,homeobox A4
HOXA5,3202,homeobox A5
HOXA6,3203,homeobox A6
HOXA7,3204,homeobox A7
HOXA9,3205,homeobox A9
HOXB3,3213,homeobox B3
HOXB4,3214,homeobox B4
HOXB5,3215,homeobox B5
HOXB6,3216,homeobox B6
HOXB7,3217,homeobox B7
HOXB8,3218,homeobox B8
HOXB9,3219,homeobox B9
HOXC11,3227,homeobox C11
HOXC4,3221,homeobox C4
HOXC6,3223,homeobox C6
HPX,3263,hemopexin
HS6ST3,266722,heparan sulfate 6-O-sulfotransferase 3
HSD17B14,51171,hydroxysteroid 17-beta dehydrogenase 14
HSD17B3,3293,hydroxysteroid 17-beta dehydrogenase 3
HSD3B1,3283,"hydroxy-delta-5-steroid dehydrogenase, 3 beta- and steroid delta-isomerase 1"
HSD3B2,3284,"hydroxy-delta-5-steroid dehydrogenase, 3 beta- and steroid delta-isomerase 2"
HSPB3,8988,heat shock protein family B (small) member 3
HTN1,3346,histatin 1
HTR3B,9177,5-hydroxytryptamine receptor 3B
HTRA4,203100,HtrA serine peptidase 4
ID4,3400,"inhibitor of DNA binding 4, HLH protein"
IGFL3,388555,IGF like family member 3
IGFL4,444882,IGF like family member 4
IGFN1,91156,immunoglobulin like and fibronectin type III domain containing 1
IGSF23,147710,immunoglobulin superfamily member 23
IGSF6,10261,immunoglobulin superfamily member 6
IL34,146433,interleukin 34
IL36B,27177,interleukin 36 beta
ILDR2,387597,immunoglobulin like domain containing receptor 2
IPCEF1,26034,interaction protein for cytohesin exchange factors 1
IQCJ-SCHIP1,29970,schwannomin interacting protein 1
IRX5,10265,iroquois homeobox 5
ITGB3,3690,integrin subunit beta 3
ITIH3,3699,inter-alpha-trypsin inhibitor heavy chain 3
ITPRID1,223075,ITPR interacting domain containing 1
JPH2,57158,junctophilin 2
JSRP1,126306,junctional sarcoplasmic reticulum protein 1
KANK3,256949,KN motif and ankyrin repeat domains 3
KATNAL2,83473,katanin catalytic subunit A1 like 2
KCNAB3,9196,potassium voltage-gated channel subfamily A regulatory beta subunit 3
KCNG1,3755,potassium voltage-gated channel modifier subfamily G member 1
KCNH6,81033,potassium voltage-gated channel subfamily H member 6
KCNJ16,3773,potassium inwardly rectifying channel subfamily J member 16
KCNJ4,3761,potassium inwardly rectifying channel subfamily J member 4
KCNJ6,3763,potassium inwardly rectifying channel subfamily J member 6
KCNMB1,3779,potassium calcium-activated channel subfamily M regulatory beta subunit 1
KCNQ3,3786,potassium voltage-gated channel subfamily Q member 3
KCNRG,283518,potassium channel regulator
KCNV1,27012,potassium voltage-gated channel modifier subfamily V member 1
KHDC1,80759,KH domain containing 1
KIAA0319,9856,KIAA0319
KIAA1614,57710,KIAA1614
KIF7,374654,kinesin family member 7
KL,9365,klotho
KLC3,147700,kinesin light chain 3
KLF15,28999,Kruppel like factor 15
KLF8,11279,Kruppel like factor 8
KLHDC7B,113730,kelch domain containing 7B
KLHL33,123103,kelch like family member 33
KLHL35,283212,kelch like family member 35
KLHL6,89857,kelch like family member 6
KLKB1,3818,kallikrein B1
KLRK1,22914,killer cell lectin like receptor K1
KNG1,3827,kininogen 1
KRT13,3860,keratin 13
KRT4,3851,keratin 4
KRT9,3857,keratin 9
KRTAP5-1,387264,keratin associated protein 5-1
KSR2,283455,kinase suppressor of ras 2
L1CAM,3897,L1 cell adhesion molecule
LAT2,7462,linker for activation of T cells family member 2
LGI4,163175,leucine rich repeat LGI family member 4
LIN7B,64130,"lin-7 homolog B, crumbs cell polarity complex component"
LINC02693,339263,long intergenic non-protein coding RNA 2693
LIPC,3990,"lipase C, hepatic type"
LRP12,29967,LDL receptor related protein 12
LRRC2,79442,leucine rich repeat containing 2
LRRC29,26231,leucine rich repeat containing 29
LRRC32,2615,leucine rich repeat containing 32
LRRC34,151827,leucine rich repeat containing 34
LRRC39,127495,leucine rich repeat containing 39
LRRC49,54839,leucine rich repeat containing 49
LRRC56,115399,leucine rich repeat containing 56
LRRN2,10446,leucine rich repeat neuronal 2
LRRTM1,347730,leucine rich repeat transmembrane neuronal 1
LTB4R2,56413,leukotriene B4 receptor 2
LY6G5C,80741,lymphocyte antigen 6 family member G5C
LYPD8,646627,LY6/PLAUR domain containing 8
MAFB,9935,MAF bZIP transcription factor B
MAJIN,283129,membrane anchored junction protein
MARCHF1,55016,membrane associated ring-CH-type finger 1
MARK1,4139,microtubule affinity regulating kinase 1
MCAM,4162,melanoma cell adhesion molecule
MCC,4163,MCC regulator of WNT signaling pathway
MCOLN2,255231,mucolipin 2
MCTP1,79772,multiple C2 and transmembrane domain containing 1
MDGA1,266727,MAM domain containing glycosylphosphatidylinositol anchor 1
MED12L,116931,mediator complex subunit 12L
MEF2B,4207,BORCS8-MEF2B readthrough
MEIOC,284071,meiosis specific with coiled-coil domain
MESP1,55897,mesoderm posterior bHLH transcription factor 1
METAP1D,254042,"methionyl aminopeptidase type 1D, mitochondrial"
MFAP3L,9848,microfibril associated protein 3 like
MGAT4C,25834,MGAT4 family member C
MGP,4256,matrix Gla protein
MMP10,4319,matrix metallopeptidase 10
MMP19,4327,matrix metallopeptidase 19
MNS1,55329,meiosis specific nuclear structural 1
MOBP,4336,myelin associated oligodendrocyte basic protein
MPP2,4355,membrane palmitoylated protein 2
MRC1,4360,mannose receptor C-type 1
MROH8,140699,maestro heat like repeat family member 8
MSS51,118490,MSS51 mitochondrial translational activator
MYBPC1,4604,myosin binding protein C1
MYBPHL,343263,myosin binding protein H like
MYCBPAP,84073,MYCBP associated protein
MYCN,4613,"MYCN proto-oncogene, bHLH transcription factor"
MYH11,4629,myosin heavy chain 11
MYH3,4621,myosin heavy chain 3
MYRIP,25924,myosin VIIA and Rab interacting protein
MZB1,51237,marginal zone B and B1 cell specific protein
NAT8,9027,N-acetyltransferase 8 (putative)
NAT8B,51471,"N-acetyltransferase 8B (putative, gene/pseudogene)"
NAV3,89795,neuron navigator 3
NBPF7,343505,NBPF member 7
NEURL2,140825,neuralized E3 ubiquitin protein ligase 2
NGFR,4804,nerve growth factor receptor
NOL4,8715,nucleolar protein 4
NOS3,4846,nitric oxide synthase 3
NOX1,27035,NADPH oxidase 1
NPIPA2,642799,nuclear pore complex interacting protein family member A2
NPIPA3,642778,nuclear pore complex interacting protein family member A3
NPIPA8,101059953,nuclear pore complex interacting protein family member A8
NPIPB11,728888,nuclear pore complex interacting protein family member B11
NPL,80896,N-acetylneuraminate pyruvate lyase
NPTX2,4885,neuronal pentraxin 2
NPY6R,4888,neuropeptide Y receptor Y6 (pseudogene)
NRIP2,83714,nuclear receptor interacting protein 2
NRL,4901,neural retina leucine zipper
NRXN3,9369,neurexin 3
NTS,4922,neurotensin
NUDT17,200035,nudix hydrolase 17
NUDT6,11162,nudix hydrolase 6
NXF3,56000,nuclear RNA export factor 3
OAZ3,51686,ornithine decarboxylase antizyme 3
OGDHL,55753,oxoglutarate dehydrogenase L
OIP5,11339,Opa interacting protein 5
OPRD1,4985,opioid receptor delta 1
OPRM1,4988,opioid receptor mu 1
OR10G4,390264,olfactory receptor family 10 subfamily G member 4
OR10H5,284433,olfactory receptor family 10 subfamily H member 5
OR10K1,391109,olfactory receptor family 10 subfamily K member 1
OR2G6,391211,olfactory receptor family 2 subfamily G member 6
OR2J2,26707,olfactory receptor family 2 subfamily J member 2
OR2T12,127064,olfactory receptor family 2 subfamily T member 12
OR4D9,390199,olfactory receptor family 4 subfamily D member 9
OR52A1,23538,olfactory receptor family 52 subfamily A member 1
OR52I1,390037,olfactory receptor family 52 subfamily I member 1
OR52N1,79473,olfactory receptor family 52 subfamily N member 1
OR6J1,79549,olfactory receptor family 6 subfamily J member 1
OR6Y1,391112,olfactory receptor family 6 subfamily Y member 1
OR7E104P,102723968,uncharacterized LOC102723968
OR7G2,390882,olfactory receptor family 7 subfamily G member 2
OR8A1,390275,olfactory receptor family 8 subfamily A member 1
OSBPL6,114880,oxysterol binding protein like 6
OSR2,116039,odd-skipped related transciption factor 2
OSTCP1,202459,oligosaccharyltransferase complex subunit pseudogene 1
OTOP2,92736,otopetrin 2
OXCT2,64064,3-oxoacid CoA-transferase 2
OXER1,165140,oxoeicosanoid receptor 1
OXT,5020,oxytocin/neurophysin I prepropeptide
P2RY8,286530,P2Y receptor family member 8
PCDHB1,29930,protocadherin beta 1
PCDHGB6,56100,"protocadherin gamma subfamily B, 6"
PCSK1N,27344,proprotein convertase subtilisin/kexin type 1 inhibitor
PDE3A,5139,phosphodiesterase 3A
PDE6A,5145,phosphodiesterase 6A
PDE8B,8622,phosphodiesterase 8B
PDGFRL,5157,platelet derived growth factor receptor like
PDILT,204474,"protein disulfide isomerase like, testis expressed"
PDZD2,23037,PDZ domain containing 2
PECAM1,5175,platelet and endothelial cell adhesion molecule 1
PF4,5196,platelet factor 4
PFKFB1,5207,"6-phosphofructo-2-kinase/fructose-2,6-biphosphatase 1"
PGBD1,84547,piggyBac transposable element derived 1
PHYHIPL,84457,phytanoyl-CoA 2-hydroxylase interacting protein like
PIGY,84992,phosphatidylinositol glycan anchor biosynthesis class Y
PKDREJ,10343,polycystin family receptor for egg jelly
PKP1,5317,plakophilin 1
PLA2G4E,123745,phospholipase A2 group IVE
PLD6,201164,phospholipase D family member 6
PLEKHD1,400224,pleckstrin homology and coiled-coil domain containing D1
PLEKHG7,440107,pleckstrin homology and RhoGEF domain containing G7
PLG,5340,plasminogen
PLGLB2,5342,plasminogen like B2
PLXDC2,84898,plexin domain containing 2
PMS2P4,5382,"PMS1 homolog 2, mismatch repair system component pseudogene 4"
PNPLA1,285848,patatin like phospholipase domain containing 1
POGLUT2,79070,protein O-glucosyltransferase 2
POLR3G,10622,RNA polymerase III subunit G
POPDC2,64091,popeye domain containing 2
POU2AF1,5450,POU class 2 homeobox associating factor 1
PPP1R32,220004,protein phosphatase 1 regulatory subunit 32
PRDM7,11105,PR/SET domain 7
PRELID3A,10650,PRELI domain containing 3A
PRELP,5549,proline and arginine rich end leucine rich repeat protein
PRKG1,5592,protein kinase cGMP-dependent 1
PROCA1,147011,protein interacting with cyclin A1
PRR22,163154,proline rich 22
PRSS27,83886,serine protease 27
PRSS35,167681,serine protease 35
PSD,5662,pleckstrin and Sec7 domain containing
PSMC3IP,29893,PSMC3 interacting protein
PSORS1C2,170680,psoriasis susceptibility 1 candidate 2
PTGER3,5733,prostaglandin E receptor 3
PTGES,9536,prostaglandin E synthase
PTPRD,5789,protein tyrosine phosphatase receptor type D
R3HDML,140902,R3H domain containing like
RAB3A,5864,"RAB3A, member RAS oncogene family"
RAB6C-AS1,100131320,RAB6C antisense RNA 1
RAB6D,150786,"RAB6D, member RAS oncogene family"
RASL12,51285,RAS like family 12
RBM20,282996,RNA binding motif protein 20
RDH16,8608,retinol dehydrogenase 16
RECK,8434,reversion inducing cysteine rich protein with kazal motifs
REELD1,345051,reeler domain containing 1
RENBP,5973,renin binding protein
RFESD,317671,Rieske Fe-S domain containing
RFLNB,359845,refilin B
RFXAP,5994,regulatory factor X associated protein
RGN,9104,regucalcin
RGPD3,653489,RANBP2 like and GRIP domain containing 3
RHBDL1,9028,rhomboid like 1
RHBG,57127,Rh family B glycoprotein
RHD,6007,Rh blood group D antigen
RIC3,79608,RIC3 acetylcholine receptor chaperone
RIMS4,140730,regulating synaptic membrane exocytosis 4
RIPOR3,140876,RIPOR family member 3
RNASE10,338879,ribonuclease A family member 10 (inactive)
RNF150,57484,ring finger protein 150
RNF157,114804,ring finger protein 157
RNF182,221687,ring finger protein 182
RNF212,285498,ring finger protein 212
RPE65,6121,retinoid isomerohydrolase RPE65
RPLP0P2,113157,ribosomal protein lateral stalk subunit P0 pseudogene 2
SAPCD1,401251,suppressor APC domain containing 1
SATB2,23314,SATB homeobox 2
SBSPON,157869,somatomedin B and thrombospondin type 1 domain containing
SCG3,29106,secretogranin III
SCHIP1,29970,schwannomin interacting protein 1
SCIMP,388325,SLP adaptor and CSK interacting membrane protein
SCN2B,6327,sodium voltage-gated channel beta subunit 2
SCN3B,55800,sodium voltage-gated channel beta subunit 3
SCN9A,6335,sodium voltage-gated channel alpha subunit 9
SCNN1B,6338,sodium channel epithelial 1 subunit beta
SCT,6343,secretin
SCTR,6344,secretin receptor
SCX,642658,scleraxis bHLH transcription factor
SEMA3D,223117,semaphorin 3D
SEMA3G,56920,semaphorin 3G
SEMG1,6406,semenogelin 1
SEPTIN3,55964,septin 3
SERHL,94009,serine hydrolase like (pseudogene)
SERPINA6,866,serpin family A member 6
SERPINF1,5176,serpin family F member 1
SERPINF2,5345,serpin family F member 2
SFTPB,6439,surfactant protein B
SGSM1,129049,small G protein signaling modulator 1
SH2D5,400745,SH2 domain containing 5
SH3BGR,6450,SH3 domain binding glutamate rich protein
SHBG,6462,sex hormone binding globulin
SKAP1,8631,src kinase associated phosphoprotein 1
SLC13A1,6561,solute carrier family 13 member 1
SLC13A4,26266,solute carrier family 13 member 4
SLC16A14,151473,solute carrier family 16 member 14
SLC16A6,9120,solute carrier family 16 member 6
SLC16A9,220963,solute carrier family 16 member 9
SLC17A7,57030,solute carrier family 17 member 7
SLC17A8,246213,solute carrier family 17 member 8
SLC22A15,55356,solute carrier family 22 member 15
SLC22A17,51310,solute carrier family 22 member 17
SLC22A2,6582,solute carrier family 22 member 2
SLC22A31,146429,solute carrier family 22 member 31
SLC22A7,10864,solute carrier family 22 member 7
SLC23A1,9963,solute carrier family 23 member 1
SLC25A35,399512,solute carrier family 25 member 35
SLC25A41,284427,solute carrier family 25 member 41
SLC25A48,153328,solute carrier family 25 member 48
SLC34A3,142680,solute carrier family 34 member 3
SLC38A4,55089,solute carrier family 38 member 4
SLC39A2,29986,solute carrier family 39 member 2
SLC49A3,84179,solute carrier family 49 member 3
SLC4A1,6521,solute carrier family 4 member 1 (Diego blood group)
SLC4A5,57835,solute carrier family 4 member 5
SLC4A9,83697,solute carrier family 4 member 9
SLC5A10,125206,solute carrier family 5 member 10
SLC5A11,115584,solute carrier family 5 member 11
SLC5A12,159963,solute carrier family 5 member 12
SLC5A8,160728,solute carrier family 5 member 8
SLC9B1,150159,solute carrier family 9 member B1
SLFN12L,100506736,schlafen family member 12 like
SMIM2,79024,small integral membrane protein 2
SOD3,6649,superoxide dismutase 3
SOX14,8403,SRY-box transcription factor 14
SPAAR,158376,small regulatory polypeptide of amino acid response
SPACA9,11092,sperm acrosome associated 9
SPATA17,128153,spermatogenesis associated 17
SPATA25,128497,spermatogenesis associated 25
SPATA31C1,441452,SPATA31 subfamily C member 1
SPATA31E1,286234,SPATA31 subfamily E member 1
SPDYA,245711,speedy/RINGO cell cycle regulator family member A
SPDYE1,285955,speedy/RINGO cell cycle regulator family member E1
SPDYE2B,100310812,speedy/RINGO cell cycle regulator family member E2B
SPDYE5,442590,speedy/RINGO cell cycle regulator family member E5
SPDYE9,643862,"speedy/RINGO cell cycle regulator family member E10, pseudogene"
SPEF2,79925,sperm flagellar 2
SPN,6693,sialophorin
SPP2,6694,secreted phosphoprotein 2
SPTBN4,57731,"spectrin beta, non-erythrocytic 4"
SRCIN1,80725,SRC kinase signaling inhibitor 1
STAB2,55576,stabilin 2
STAC3,246329,SH3 and cysteine rich domain 3
STARD9,57519,StAR related lipid transfer domain containing 9
STAT4,6775,signal transducer and activator of transcription 4
STK31,56164,serine/threonine kinase 31
STKLD1,169436,serine/threonine kinase like domain containing 1
STPG3,441476,sperm-tail PG-rich repeat containing 3
STPG4,285051,sperm-tail PG-rich repeat containing 4
STUM,375057,"stum, mechanosensory transduction mediator homolog"
STYXL2,92235,serine/threonine/tyrosine interacting like 2
SUGT1P3,283507,SUGT1 pseudogene 3
SULT1C2P1,151234,sulfotransferase family 1C member 2 pseudogene 1
SULT1C3,442038,sulfotransferase family 1C member 3
SYCP2,10388,synaptonemal complex protein 2
SYCP3,50511,synaptonemal complex protein 3
TAC1,6863,tachykinin precursor 1
TAC3,6866,tachykinin precursor 3
TAFA2,338811,TAFA chemokine like family member 2
TAS2R14,50840,taste 2 receptor member 14
TAS2R4,50832,taste 2 receptor member 4
TCP10L3,6953,"t-complex 10 like 3, pseudogene"
TDRD12,91646,tudor domain containing 12
TENT5B,115572,terminal nucleotidyltransferase 5B
TEX11,56159,testis expressed 11
TFAP2C,7022,transcription factor AP-2 gamma
TFEC,22797,transcription factor EC
TGFB3,7043,transforming growth factor beta 3
TGFBR3L,100507588,transforming growth factor beta receptor 3 like
TIGD3,220359,tigger transposable element derived 3
TIGD4,201798,tigger transposable element derived 4
TIMP4,7079,TIMP metallopeptidase inhibitor 4
TLCD4-RWDD3,100527978,TLCD4-RWDD3 readthrough
TMC2,117532,transmembrane channel like 2
TMEM151A,256472,transmembrane protein 151A
TMEM169,92691,transmembrane protein 169
TMEM17,200728,transmembrane protein 17
TMEM191A,84222,transmembrane protein 191A (pseudogene)
TMEM191C,645426,transmembrane protein 191C
TMEM200A,114801,transmembrane protein 200A
TMEM200C,645369,transmembrane protein 200C
TMEM204,79652,transmembrane protein 204
TMEM252,169693,transmembrane protein 252
TMEM266,123591,transmembrane protein 266
TMEM52,339456,transmembrane protein 52
TMEM63C,57156,transmembrane protein 63C
TMEM81,388730,transmembrane protein 81
TMIGD1,388364,transmembrane and immunoglobulin domain containing 1
TNNC2,7125,"troponin C2, fast skeletal type"
TREML2,79865,triggering receptor expressed on myeloid cells like 2
TRHDE,29953,thyrotropin releasing hormone degrading enzyme
TRIM6,117854,tripartite motif containing 6
TRIM6-TRIM34,445372,TRIM6-TRIM34 readthrough
TRIM63,84676,tripartite motif containing 63
TRO,7216,trophinin
TRPA1,8989,transient receptor potential cation channel subfamily A member 1
TRPC6,7225,transient receptor potential cation channel subfamily C member 6
TRPM6,140803,transient receptor potential cation channel subfamily M member 6
TRPM8,79054,transient receptor potential cation channel subfamily M member 8
TSHR,7253,thyroid stimulating hormone receptor
TSSK3,81629,testis specific serine kinase 3
TSSK4,283629,testis specific serine kinase 4
TTBK1,84630,tau tubulin kinase 1
TTC36,143941,tetratricopeptide repeat domain 36
TXK,7294,TXK tyrosine kinase
UBBP4,23666,ubiquitin B pseudogene 4
UBE2NL,389898,ubiquitin conjugating enzyme E2 N like (gene/pseudogene)
UBQLNL,143630,ubiquilin like
UGT1A7,54577,UDP glucuronosyltransferase family 1 member A7
UGT1A9,54600,UDP glucuronosyltransferase family 1 member A9
UGT2B10,7365,UDP glucuronosyltransferase family 2 member B10
UPK3A,7380,uroplakin 3A
USH1G,124590,USH1 protein network component sans
UTP14C,9724,UTP14C small subunit processome component
VASH1,22846,vasohibin 1
VEPH1,79674,ventricular zone expressed PH domain containing 1
VMO1,284013,vitelline membrane outer layer 1 homolog
VN1R1,57191,vomeronasal 1 receptor 1
VSTM5,387804,V-set and transmembrane domain containing 5
VWDE,221806,von Willebrand factor D and EGF domains
WBP2NL,164684,WBP2 N-terminal like
WDR86,349136,WD repeat domain 86
WFDC12,128488,WAP four-disulfide core domain 12
WFDC3,140686,WAP four-disulfide core domain 3
WNT10A,80326,Wnt family member 10A
WNT11,7481,Wnt family member 11
WNT5B,81029,Wnt family member 5B
WNT9B,7484,Wnt family member 9B
XKR5,389610,XK related 5
XKRX,402415,XK related X-linked
ZACN,353174,zinc activated ion channel
ZCWPW1,55063,zinc finger CW-type and PWWP domain containing 1
ZCWPW2,152098,zinc finger CW-type and PWWP domain containing 2
ZDHHC19,131540,zinc finger DHHC-type palmitoyltransferase 19
ZFP57,346171,ZFP57 zinc finger protein
ZMYND12,84217,zinc finger MYND-type containing 12
ZNF177,7730,zinc finger protein 177
ZNF221,7638,zinc finger protein 221
ZNF233,353355,zinc finger protein 233
ZNF280B,140883,zinc finger protein 280B
ZNF287,57336,zinc finger protein 287
ZNF296,162979,zinc finger protein 296
ZNF365,22891,zinc finger protein 365
ZNF382,84911,zinc finger protein 382
ZNF385C,201181,zinc finger protein 385C
ZNF415,55786,zinc finger protein 415
ZNF418,147686,zinc finger protein 418
ZNF439,90594,zinc finger protein 439
ZNF483,158399,zinc finger protein 483
ZNF497,162968,zinc finger protein 497
ZNF541,84215,zinc finger protein 541
ZNF556,80032,zinc finger protein 556
ZNF559-ZNF177,100529215,ZNF559-ZNF177 readthrough
ZNF569,148266,zinc finger protein 569
ZNF575,284346,zinc finger protein 575
ZNF582,147948,zinc finger protein 582
ZNF583,147949,zinc finger protein 583
ZNF66,7617,zinc finger protein 66
ZNF665,79788,zinc finger protein 665
ZNF671,79891,zinc finger protein 671
ZNF709,163051,zinc finger protein 709
ZNF726,730087,zinc finger protein 726
ZNF763,284390,zinc finger protein 763
ZNF771,51333,zinc finger protein 771
ZNF775,285971,zinc finger protein 775
ZNF844,284391,zinc finger protein 844
ZNF85,7639,zinc finger protein 85
ZPLD2P,101928303,"zona pellucida like domain containing 2, pseudogene"
