hgnc_symbol,entrezgene_id,entrezgene_description
CCL5,6352,C-C motif chemokine ligand 5
GJD2,57369,gap junction protein delta 2
IFI6,2537,interferon alpha inducible protein 6
IFNL1,282618,interferon lambda 1
IFNL2,282616,interferon lambda 2
IFNL3,282617,interferon lambda 3
IRS1,3667,insulin receptor substrate 1
MLKL,197259,mixed lineage kinase domain like pseudokinase
NLRC5,84166,NLR family CARD domain containing 5
OR1I1,126370,olfactory receptor family 1 subfamily I member 1
SLC25A28,81894,solute carrier family 25 member 28
STARD5,80765,StAR related lipid transfer domain containing 5
TMEM140,55281,transmembrane protein 140
TRANK1,9881,tetratricopeptide repeat and ankyrin repeat containing 1
TREX1,11277,three prime repair exonuclease 1
ZNF333,84449,zinc finger protein 333
ZNF426,79088,zinc finger protein 426
ZNF503,84858,zinc finger protein 503
