hgnc_symbol,entrezgene_id,entrezgene_description
BST2,684,bone marrow stromal cell antigen 2
CXCL11,6373,C-X-C motif chemokine ligand 11
LAMP3,27074,lysosomal associated membrane protein 3
OAS1,4938,2'-5'-oligoadenylate synthetase 1
PARP10,84875,poly(ADP-ribose) polymerase family member 10
PNPT1,87178,polyribonucleotide nucleotidyltransferase 1
IRF7,3665,interferon regulatory factor 7
CD274,29126,CD274 molecule
CMTR1,23070,cap methyltransferase 1
CNP,1267,"2',3'-cyclic nucleotide 3' phosphodiesterase"
DDX58,23586,DExD/H-box helicase 58
EIF2AK2,5610,eukaryotic translation initiation factor 2 alpha kinase 2
ETV7,51513,ETS variant transcription factor 7
GBP1,2633,guanylate binding protein 1
GBP4,115361,guanylate binding protein 4
IFITM3,10410,interferon induced transmembrane protein 3
IRF9,10379,interferon regulatory factor 9
MOB3C,148932,MOB kinase activator 3C
PARP9,83666,poly(ADP-ribose) polymerase family member 9
PLAAT2,54979,phospholipase A and acyltransferase 2
PLSCR1,5359,phospholipid scramblase 1
PPM1K,152926,"protein phosphatase, Mg2+/Mn2+ dependent 1K"
SAMD9L,219285,sterile alpha motif domain containing 9 like
SP100,6672,SP100 nuclear antigen
SP110,3431,SP110 nuclear body protein
TRIM22,10346,tripartite motif containing 22
TRIM5,85363,tripartite motif containing 5
UBE2L6,9246,ubiquitin conjugating enzyme E2 L6
ZC3HAV1,56829,"zinc finger CCCH-type containing, antiviral 1"
ZCCHC2,54877,zinc finger CCHC-type containing 2
