X1,ID,Description,Gene_Ratio,genes_DEG_BP,genes_DEG_total,Bg_Ratio,genes_BP,genes_total,pvalue,p.adjust,qvalue,geneID
GO:0048525,GO:0048525,negative regulation of viral process,0.246376811594203,17,69,0.00743626062322946,84,11296,5.15544985115709e-22,9.77325993212209e-20,8.55882200853749e-20,IFNL3/IFIT1/OAS2/RSAD2/ISG15/CCL5/MX1/IFITM1/IFI16/OASL/IFITM3/OAS3/STAT1/EIF2AK2/ZC3HAV1/TRIM5/PLSCR1
GO:0050778,GO:0050778,positive regulation of immune response,0.231884057971014,16,69,0.036207507082153,409,11296,2.14548497519345e-9,1.01680662931489e-7,8.90456922035174e-8,IFNL2/IFNL1/IFNL3/RSAD2/CCL5/DDX58/IFI16/CD274/ZBP1/PARP9/NLRC5/IRF7/GBP1/TREX1/TRIM5/PLSCR1
GO:0007259,GO:0007259,receptor signaling pathway via JAK-STAT,0.101449275362319,7,69,0.00717067988668555,81,11296,5.65151278082276e-7,1.82916035613459e-5,1.60186652375567e-5,IFNL2/IFNL1/IFNL3/CCL5/PARP9/STAT1/STAT2
GO:0002753,GO:0002753,cytoplasmic pattern recognition receptor signaling pathway,0.072463768115942,5,69,0.0057542492917847,65,11296,4.56541137167456e-5,0.00110150925276584,9.64634287909801e-4,DDX58/IFIH1/DDX60/DHX58/IRF7
